Fabric==1.8.0
Flask==0.10.1
Flask-Assets==0.8
Jinja2==2.7.1
MarkupSafe==0.18
Werkzeug==0.9.4
argparse==1.2.1
ecdsa==0.9
gevent==0.13.8
greenlet==0.4.1
gunicorn==18.0
itsdangerous==0.23
mongoengine==0.8.4
nose==1.3.0
nose-pathmunge==0.1.2
paramiko==1.12.0
pycrypto==2.6.1
pymongo==2.6.3
webassets==0.8
wsgiref==0.1.2
